Check water quality monitoring results — checkMWRresults • MassWateR
…
#> 	Checking depth data present... OK
#> 	Checking for non-numeric values in Activity Depth/Height Measure... OK
#> 	Checking Activity Depth/Height Unit... OK
#> 	Checking Activity Relative Depth Name formats... OK
#> 	Checking values in Activity Depth/Height Measure > 1 m / 3.3 ft... OK
#> 	Checking Characteristic Name formats... OK
#> 	Checking Result Values... OK
#> 	Checking for non-numeric values in Quantitation Limit... OK
#> 	Checking QC Reference Values... OK
#> 	Checking for missing entries for Result Unit... OK
#> 	Checking if more than one unit per Characteristic Name... OK
#> 	Checking acceptable units for each entry in Characteristic Name... OK
#> 
#> All checks passed!
#> # A tibble: 571 × 18
#>    `Monitoring Location ID` `Activity Type` `Activity Start Date`
#>    <chr>                    <chr>           <dttm>               
#>  1 ABT-026                  Field Msr/Obs   2022-05-15 00:00:00  
#>  2 ABT-077                  Field Msr/Obs   2022-05-15 00:00:00  
#>  3 ABT-301                  Field Msr/Obs   2022-05-15 00:00:00  
#>  4 ABT-312                  Field Msr/Obs   2022-05-15 00:00:00  
#>  5 DAN-013                  Field Msr/Obs   2022-05-15 00:00:00  
#>  6 ELZ-004                  Field Msr/Obs   2022-05-15 00:00:00  
#>  7 HOP-011                  Field Msr/Obs   2022-05-15 00:00:00  
#>  8 NSH-002                  Field Msr/Obs   2022-05-15 00:00:00  
#>  9 ABT-026                  Field Msr/Obs   2022-06-12 00:00:00  
#> 10 ABT-062                  Field Msr/Obs   2022-06-12 00:00:00  
#> # ℹ 561 more rows
#> # ℹ 15 more variables: `Activity Start Time` <dttm>,
#> #   `Activity Depth/Height Measure` <chr>, `Activity Depth/Height Unit` <chr>,
#> #   `Activity Relative Depth Name` <chr>, `Characteristic Name` <chr>,
#> #   `Result Value` <chr>, `Result Unit` <chr>, `Quantitation Limit` <chr>,
#> #   `QC Reference Value` <chr>, `Result Measure Qualifier` <chr>,
#> #   `Result Attribute` <chr>, `Sample Collection Method ID` <chr>, …
…
