Format water quality monitoring results — formMWRresults • MassWateR
…
Minor formatting for Result Unit: For conformance to WQX, e.g., ppt is changed to ppth, s.u. is changed to NA

Convert characteristic names: All parameters in Characteristic Name are converted to Simple Parameter in paramsMWR as needed

    Examples

library(dplyr)

respth <- system.file('extdata/ExampleResults.xlsx', package = 'MassWateR')

resdat <- suppressWarnings(readxl::read_excel(respth, na = c('NA', 'na', ''), guess_max = Inf)) %>% 
  dplyr::mutate_if(function(x) !lubridate::is.POSIXct(x), as.character)
  
formMWRresults(resdat)
#> # A tibble: 571 × 18
#>    `Monitoring Location ID` `Activity Type` `Activity Start Date`
#>    <chr>                    <chr>           <dttm>               
#>  1 ABT-026                  Field Msr/Obs   2022-05-15 00:00:00  
#>  2 ABT-077                  Field Msr/Obs   2022-05-15 00:00:00  
#>  3 ABT-301                  Field Msr/Obs   2022-05-15 00:00:00  
#>  4 ABT-312                  Field Msr/Obs   2022-05-15 00:00:00  
#>  5 DAN-013                  Field Msr/Obs   2022-05-15 00:00:00  
#>  6 ELZ-004                  Field Msr/Obs   2022-05-15 00:00:00  
#>  7 HOP-011                  Field Msr/Obs   2022-05-15 00:00:00  
#>  8 NSH-002                  Field Msr/Obs   2022-05-15 00:00:00  
#>  9 ABT-026                  Field Msr/Obs   2022-06-12 00:00:00  
#> 10 ABT-062                  Field Msr/Obs   2022-06-12 00:00:00  
#> # ℹ 561 more rows
#> # ℹ 15 more variables: `Activity Start Time` <chr>,
#> #   `Activity Depth/Height Measure` <chr>, `Activity Depth/Height Unit` <chr>,
#> #   `Activity Relative Depth Name` <chr>, `Characteristic Name` <chr>,
#> #   `Result Value` <chr>, `Result Unit` <chr>, `Quantitation Limit` <chr>,
#> #   `QC Reference Value` <chr>, `Result Measure Qualifier` <chr>,
#> #   `Result Attribute` <chr>, `Sample Collection Method ID` <chr>, …
…
