Run quality control frequency checks for water quality monitoring results — qcMWRfre • MassWateR
…
#> 	Checking if more than one unit (uom) per Parameter... OK
#> 	Checking acceptable units (uom) for each entry in Parameter... OK
#> 	Checking empty columns... OK
#> 
#> All checks passed!
#> Running checks on data quality objectives for frequency and completeness...
#> 	Checking column names... OK
#> 	Checking all required columns are present... OK
#> 	Checking for non-numeric values... OK
#> 	Checking for values outside of 0 and 100... OK
#> 	Checking Parameter formats... OK
#> 	Checking empty columns... OK
#> 
#> All checks passed!
#> # A tibble: 40 × 7
#>    Parameter   obs check                count standard percent met  
#>    <chr>     <int> <chr>                <int>    <dbl>   <dbl> <lgl>
#>  1 Ammonia      43 Field Duplicate          4       10    9.30 FALSE
#>  2 Ammonia      43 Lab Duplicate           10        5   23.3  TRUE 
#>  3 Ammonia      43 Field Blank              7       10   16.3  TRUE 
#>  4 Ammonia      43 Lab Blank                7        5   16.3  TRUE 
#>  5 Ammonia      43 Spike/Check Accuracy     9        5   20.9  TRUE 
#>  6 DO           49 Field Duplicate         11       10   22.4  TRUE 
#>  7 DO           49 Lab Duplicate            0       NA   NA    NA   
#>  8 DO           49 Field Blank              0       NA   NA    NA   
#>  9 DO           49 Lab Blank                0       NA   NA    NA   
#> 10 DO           49 Spike/Check Accuracy     0       NA   NA    NA   
#> # ℹ 30 more rows
…
# frequency and completeness data
frecomdat <- readMWRfrecom(frecompth)
#> Running checks on data quality objectives for frequency and completeness...
#> 	Checking column names... OK
#> 	Checking all required columns are present... OK
#> 	Checking for non-numeric values... OK
#> 	Checking for values outside of 0 and 100... OK
#> 	Checking Parameter formats... OK
#> 	Checking empty columns... OK
#> 
#> All checks passed!

qcMWRfre(res = resdat, acc = accdat, frecom = frecomdat)
#> # A tibble: 40 × 7
#>    Parameter   obs check                count standard percent met  
#>    <chr>     <int> <chr>                <int>    <dbl>   <dbl> <lgl>
#>  1 Ammonia      43 Field Duplicate          4       10    9.30 FALSE
#>  2 Ammonia      43 Lab Duplicate           10        5   23.3  TRUE 
#>  3 Ammonia      43 Field Blank              7       10   16.3  TRUE 
#>  4 Ammonia      43 Lab Blank                7        5   16.3  TRUE 
#>  5 Ammonia      43 Spike/Check Accuracy     9        5   20.9  TRUE 
#>  6 DO           49 Field Duplicate         11       10   22.4  TRUE 
#>  7 DO           49 Lab Duplicate            0       NA   NA    NA   
#>  8 DO           49 Field Blank              0       NA   NA    NA   
#>  9 DO           49 Lab Blank                0       NA   NA    NA   
#> 10 DO           49 Spike/Check Accuracy     0       NA   NA    NA   
#> # ℹ 30 more rows
…
