…
#>  Checking all required columns are present... OK
#>  Checking unique parameters... OK
#>  Checking Parameter formats... OK
#> 
#> All checks passed!
#> Running checks on censored data...
#>  Checking column names... OK
#>  Checking all required columns are present... OK
#>  Checking for non-numeric or empty values in Missed and Censored Records... OK
#>  Checking for negative values in Missed and Censored Records... OK
#>  Checking Parameter Name formats... OK
#> 
#> All checks passed!
inp$resdat
#> # A tibble: 571 × 18
#>    `Monitoring Location ID` `Activity Type` `Activity Start Date`
#>    <chr>                    <chr>           <dttm>               
#>  1 ABT-026                  Field Msr/Obs   2022-05-15 00:00:00  
#>  2 ABT-077                  Field Msr/Obs   2022-05-15 00:00:00  
#>  3 ABT-301                  Field Msr/Obs   2022-05-15 00:00:00  
#>  4 ABT-312                  Field Msr/Obs   2022-05-15 00:00:00  
#>  5 DAN-013                  Field Msr/Obs   2022-05-15 00:00:00  
#>  6 ELZ-004                  Field Msr/Obs   2022-05-15 00:00:00  
#>  7 HOP-011                  Field Msr/Obs   2022-05-15 00:00:00  
#>  8 NSH-002                  Field Msr/Obs   2022-05-15 00:00:00  
#>  9 ABT-026                  Field Msr/Obs   2022-06-12 00:00:00  
#> 10 ABT-062                  Field Msr/Obs   2022-06-12 00:00:00  
#> # ℹ 561 more rows
#> # ℹ 15 more variables: `Activity Start Time` <chr>,
#> #   `Activity Depth/Height Measure` <chr>, `Activity Depth/Height Unit` <chr>,
#> #   `Activity Relative Depth Name` <chr>, `Characteristic Name` <chr>,
#> #   `Result Value` <chr>, `Result Unit` <chr>, `Quantitation Limit` <chr>,
#> #   `QC Reference Value` <chr>, `Result Measure Qualifier` <chr>,
#> #   `Result Attribute` <chr>, `Sample Collection Method ID` <chr>, …
…
# censored data
censdat <- readMWRcens(censpth)
#> Running checks on censored data...
#>  Checking column names... OK
#>  Checking all required columns are present... OK
#>  Checking for non-numeric or empty values in Missed and Censored Records... OK
#>  Checking for negative values in Missed and Censored Records... OK
#>  Checking Parameter Name formats... OK
#> 
#> All checks passed!

inp <- utilMWRinput(res = resdat, acc = accdat, frecom = frecomdat, sit = sitdat, 
   wqx = wqxdat, cens = censdat)
inp$resdat
#> # A tibble: 571 × 18
#>    `Monitoring Location ID` `Activity Type` `Activity Start Date`
#>    <chr>                    <chr>           <dttm>               
#>  1 ABT-026                  Field Msr/Obs   2022-05-15 00:00:00  
#>  2 ABT-077                  Field Msr/Obs   2022-05-15 00:00:00  
#>  3 ABT-301                  Field Msr/Obs   2022-05-15 00:00:00  
#>  4 ABT-312                  Field Msr/Obs   2022-05-15 00:00:00  
#>  5 DAN-013                  Field Msr/Obs   2022-05-15 00:00:00  
#>  6 ELZ-004                  Field Msr/Obs   2022-05-15 00:00:00  
#>  7 HOP-011                  Field Msr/Obs   2022-05-15 00:00:00  
#>  8 NSH-002                  Field Msr/Obs   2022-05-15 00:00:00  
#>  9 ABT-026                  Field Msr/Obs   2022-06-12 00:00:00  
#> 10 ABT-062                  Field Msr/Obs   2022-06-12 00:00:00  
#> # ℹ 561 more rows
#> # ℹ 15 more variables: `Activity Start Time` <chr>,
#> #   `Activity Depth/Height Measure` <chr>, `Activity Depth/Height Unit` <chr>,
#> #   `Activity Relative Depth Name` <chr>, `Characteristic Name` <chr>,
#> #   `Result Value` <chr>, `Result Unit` <chr>, `Quantitation Limit` <chr>,
#> #   `QC Reference Value` <chr>, `Result Measure Qualifier` <chr>,
#> #   `Result Attribute` <chr>, `Sample Collection Method ID` <chr>, …
…
#>  Checking all required columns are present... OK
#>  Checking unique parameters... OK
#>  Checking Parameter formats... OK
#> 
#> All checks passed!
#> Running checks on censored data...
#>  Checking column names... OK
#>  Checking all required columns are present... OK
#>  Checking for non-numeric or empty values in Missed and Censored Records... OK
#>  Checking for negative values in Missed and Censored Records... OK
#>  Checking Parameter Name formats... OK
#> 
#> All checks passed!
#> $resdat
#> # A tibble: 571 × 18
#>    `Monitoring Location ID` `Activity Type` `Activity Start Date`
#>    <chr>                    <chr>           <dttm>               
#>  1 ABT-026                  Field Msr/Obs   2022-05-15 00:00:00  
#>  2 ABT-077                  Field Msr/Obs   2022-05-15 00:00:00  
#>  3 ABT-301                  Field Msr/Obs   2022-05-15 00:00:00  
#>  4 ABT-312                  Field Msr/Obs   2022-05-15 00:00:00  
#>  5 DAN-013                  Field Msr/Obs   2022-05-15 00:00:00  
#>  6 ELZ-004                  Field Msr/Obs   2022-05-15 00:00:00  
#>  7 HOP-011                  Field Msr/Obs   2022-05-15 00:00:00  
#>  8 NSH-002                  Field Msr/Obs   2022-05-15 00:00:00  
#>  9 ABT-026                  Field Msr/Obs   2022-06-12 00:00:00  
#> 10 ABT-062                  Field Msr/Obs   2022-06-12 00:00:00  
#> # ℹ 561 more rows
#> # ℹ 15 more variables: `Activity Start Time` <chr>,
#> #   `Activity Depth/Height Measure` <chr>, `Activity Depth/Height Unit` <chr>,
#> #   `Activity Relative Depth Name` <chr>, `Characteristic Name` <chr>,
#> #   `Result Value` <chr>, `Result Unit` <chr>, `Quantitation Limit` <chr>,
#> #   `QC Reference Value` <chr>, `Result Measure Qualifier` <chr>,
#> #   `Result Attribute` <chr>, `Sample Collection Method ID` <chr>, …
…
