…
# filter by parameter, result attribute
utilMWRfilter(resdat, param = 'DO', resultatt = 'DRY')
#> # A tibble: 27 × 18
#>    `Monitoring Location ID` `Activity Type` `Activity Start Date`
#>    <chr>                    <chr>           <dttm>               
#>  1 ABT-026                  Field Msr/Obs   2022-05-15 00:00:00  
#>  2 ABT-077                  Field Msr/Obs   2022-05-15 00:00:00  
#>  3 ABT-301                  Field Msr/Obs   2022-05-15 00:00:00  
#>  4 ABT-312                  Field Msr/Obs   2022-05-15 00:00:00  
#>  5 DAN-013                  Field Msr/Obs   2022-05-15 00:00:00  
#>  6 ELZ-004                  Field Msr/Obs   2022-05-15 00:00:00  
#>  7 HOP-011                  Field Msr/Obs   2022-05-15 00:00:00  
#>  8 NSH-002                  Field Msr/Obs   2022-05-15 00:00:00  
#>  9 ABT-026                  Field Msr/Obs   2022-08-14 00:00:00  
#> 10 ABT-062                  Field Msr/Obs   2022-08-14 00:00:00  
#> # ℹ 17 more rows
#> # ℹ 15 more variables: `Activity Start Time` <chr>,
#> #   `Activity Depth/Height Measure` <chr>, `Activity Depth/Height Unit` <chr>,
#> #   `Activity Relative Depth Name` <chr>, `Characteristic Name` <chr>,
#> #   `Result Value` <chr>, `Result Unit` <chr>, `Quantitation Limit` <chr>,
#> #   `QC Reference Value` <chr>, `Result Measure Qualifier` <chr>,
#> #   `Result Attribute` <chr>, `Sample Collection Method ID` <chr>, …
…
