…
# apply to total phosphorus
utilMWRfre(resdat, accdat, param = 'TP')
#> # A tibble: 95 × 23
#>    `Monitoring Location ID` `Activity Type`                `Activity Start Date`
#>    <chr>                    <chr>                          <dttm>               
#>  1 NA                       Quality Control Sample-Field … 2022-05-15 00:00:00  
#>  2 NA                       Quality Control Sample-Field … 2022-05-15 00:00:00  
#>  3 NA                       Quality Control Sample-Field … 2022-06-12 00:00:00  
#>  4 NA                       Quality Control Sample-Field … 2022-06-12 00:00:00  
#>  5 NA                       Quality Control Sample-Field … 2022-07-17 00:00:00  
#>  6 NA                       Quality Control Sample-Field … 2022-07-17 00:00:00  
#>  7 NA                       Quality Control Sample-Field … 2022-07-17 00:00:00  
#>  8 NA                       Quality Control Sample-Field … 2022-08-14 00:00:00  
#>  9 NA                       Quality Control Sample-Field … 2022-08-14 00:00:00  
#> 10 NA                       Quality Control Sample-Field … 2022-09-11 00:00:00  
#> # ℹ 85 more rows
#> # ℹ 20 more variables: `Activity Start Time` <chr>,
#> #   `Activity Depth/Height Measure` <chr>, `Activity Depth/Height Unit` <chr>,
#> #   `Activity Relative Depth Name` <chr>, `Characteristic Name` <chr>,
#> #   `Result Value` <dbl>, `Result Unit` <chr>, `Quantitation Limit` <chr>,
#> #   `QC Reference Value` <chr>, `Result Measure Qualifier` <chr>,
#> #   `Result Attribute` <chr>, `Sample Collection Method ID` <chr>, …
…
