Filter results data by date range, site, result attributes, and/or location group — utilMWRfilter • MassWateR
…
# filter by date
utilMWRfilter(resdat, param = 'DO', dtrng = c('2021-06-01', '2021-06-30'))
#> # A tibble: 37 × 17
#>    Monitori…¹ Activ…² Activity…³ Activ…⁴ Activ…⁵ Activ…⁶ Activ…⁷ Chara…⁸ Resul…⁹
#>    <chr>      <chr>   <date>     <chr>   <chr>   <chr>   <chr>   <chr>   <chr>  
#>  1 ABT-062    Field … 2021-06-13 06:30   1       ft      NA      DO      8.27   
#>  2 CND-110    Field … 2021-06-13 06:32   1       ft      NA      DO      4.92   
#>  3 SUD-086    Field … 2021-06-13 06:35   1       ft      NA      DO      1.25   
#>  4 HOP-011    Field … 2021-06-13 06:40   1       ft      NA      DO      8.56   
#>  5 ABT-237    Field … 2021-06-13 06:43   1       ft      NA      DO      8.09   
#>  6 SUD-096    Field … 2021-06-13 07:17   1       ft      NA      DO      2.11   
#>  7 ABT-301    Field … 2021-06-13 07:18   0.5     ft      NA      DO      8.23   
#>  8 CND-036    Field … 2021-06-13 07:20   1       ft      NA      DO      7.1    
#>  9 DAN-013    Field … 2021-06-13 07:25   0.5     ft      NA      DO      8.81   
#> 10 RVM-005    Field … 2021-06-13 07:40   1       ft      NA      DO      7.72   
#> # … with 27 more rows, 8 more variables: `Result Unit` <chr>,
#> #   `Quantitation Limit` <chr>, `QC Reference Value` <chr>,
#> #   `Result Measure Qualifier` <chr>, `Result Attribute` <chr>,
#> #   `Sample Collection Method ID` <chr>, `Project ID` <chr>,
#> #   `Result Comment` <chr>, and abbreviated variable names
#> #   ¹​`Monitoring Location ID`, ²​`Activity Type`, ³​`Activity Start Date`,
#> #   ⁴​`Activity Start Time`, ⁵​`Activity Depth/Height Measure`, …
…
# filter by result attribute
utilMWRfilter(resdat, param = 'E.coli', resultatt = 'Dry')
#> # A tibble: 120 × 17
#>    Monitori…¹ Activ…² Activity…³ Activ…⁴ Activ…⁵ Activ…⁶ Activ…⁷ Chara…⁸ Resul…⁹
#>    <chr>      <chr>   <date>     <chr>   <chr>   <chr>   <chr>   <chr>   <chr>  
#>  1 CND-009    Sample… 2021-06-14 06:10   0.75    ft      NA      E.coli  60     
#>  2 SUD-236    Sample… 2021-06-14 06:20   0.75    ft      NA      E.coli  90     
#>  3 RVM-022    Sample… 2021-06-14 06:25   0.75    ft      NA      E.coli  280    
#>  4 RME-003    Sample… 2021-06-14 06:40   0.75    ft      NA      E.coli  150    
#>  5 RME-020    Sample… 2021-06-14 06:55   0.75    ft      NA      E.coli  120    
#>  6 RVM-027    Sample… 2021-06-14 07:10   0.75    ft      NA      E.coli  170    
#>  7 SUD-096    Sample… 2021-06-14 07:10   0.75    ft      NA      E.coli  60     
#>  8 HBS-016    Sample… 2021-06-14 07:15   0.75    ft      NA      E.coli  90     
#>  9 ABT-162    Sample… 2021-06-14 07:31   0.75    ft      NA      E.coli  100    
#> 10 CND-110    Sample… 2021-06-14 07:35   0.75    ft      NA      E.coli  50     
#> # … with 110 more rows, 8 more variables: `Result Unit` <chr>,
#> #   `Quantitation Limit` <chr>, `QC Reference Value` <chr>,
#> #   `Result Measure Qualifier` <chr>, `Result Attribute` <chr>,
#> #   `Sample Collection Method ID` <chr>, `Project ID` <chr>,
#> #   `Result Comment` <chr>, and abbreviated variable names
#> #   ¹​`Monitoring Location ID`, ²​`Activity Type`, ³​`Activity Start Date`,
#> #   ⁴​`Activity Start Time`, ⁵​`Activity Depth/Height Measure`, …
…
