Utility function to import data as paths or data frames — utilMWRinput • MassWateR
…
#> 	Checking for missing entries for unit (uom)... OK
#> 	Checking if more than one unit (uom) per Parameter... OK
#> 	Checking acceptable units (uom) for each entry in Parameter... OK
#> 
#> All checks passed!
#> Running checks on data quality objectives for frequency and completeness...
#> 	Checking column names... OK
#> 	Checking all required columns are present... OK
#> 	Checking for non-numeric values... OK
#> 	Checking for values outside of 0 and 100... OK
#> 	Checking Parameter formats... OK
#> 
#> All checks passed!
inp$resdat
#> # A tibble: 2,594 × 14
#>    `Monitoring Location ID` `Activity Type` `Activity Start D…` `Activity Star…`
#>    <chr>                    <chr>           <date>              <chr>           
#>  1 HBS-016                  Field Msr/Obs   2021-01-14          09:22           
#>  2 LND-007                  Field Msr/Obs   2021-01-14          09:50           
#>  3 HBS-031                  Field Msr/Obs   2021-01-14          10:05           
#>  4 HBS-057                  Field Msr/Obs   2021-01-14          10:30           
#>  5 HBS-065                  Field Msr/Obs   2021-01-14          10:40           
#>  6 CRN-002                  Field Msr/Obs   2021-01-14          11:30           
#>  7 HBS-076                  Field Msr/Obs   2021-01-14          11:58           
#>  8 HBS-085                  Field Msr/Obs   2021-01-14          12:10           
#>  9 HBS-095                  Field Msr/Obs   2021-01-14          12:20           
#> 10 HBS-016                  Field Msr/Obs   2021-02-15          08:50           
#> # … with 2,584 more rows, and 10 more variables:
#> #   `Activity Depth/Height Measure` <chr>, `Activity Depth/Height Unit` <chr>,
#> #   `Activity Relative Depth Name` <chr>, `Characteristic Name` <chr>,
#> #   `Result Value` <chr>, `Result Unit` <chr>, `Quantitation Limit` <chr>,
#> #   `QC Reference Value` <chr>, `Result Measure Qualifier` <chr>,
#> #   `Result Attribute` <chr>
inp$accdat
#> # A tibble: 21 × 10
#>    Parameter    uom     MDL   UQL `Value Range` `Field Duplica…` `Lab Duplicate`
#>    <chr>        <chr> <dbl> <dbl> <chr>         <chr>            <chr>          
#>  1 Water Temp   deg C NA       NA all           <= 10%           <= 10%         
#>  2 pH           NA    NA       NA all           <= 0.5           <= 0.5         
#>  3 DO           mg/l   0.1     NA < 4           <= 20%           <= 20%         
#>  4 DO           mg/l   0.1     NA >= 4          <= 10%           <= 10%         
#>  5 Sp Conducta… uS/cm  1       NA < 250         <= 30%           <= 20%         
#>  6 Sp Conducta… uS/cm  1       NA >= 250        <= 20%           <= 10%         
#>  7 TSS          mg/l   1       NA < 3           <= 1             <= 20%         
#>  8 TSS          mg/l   1       NA >= 3          <= 30%           <= 20%         
#>  9 TP           mg/l   0.01    NA < 0.05        <= 0.02          <= 0.01        
#> 10 TP           mg/l   0.01    NA >= 0.05       <= 30%           <= 20%         
#> # … with 11 more rows, and 3 more variables: `Field Blank` <chr>,
#> #   `Lab Blank` <chr>, `Spike/Check Accuracy` <chr>
…
# frequency and completeness data
frecomdat <- readMWRfrecom(frecompth)
#> Running checks on data quality objectives for frequency and completeness...
#> 	Checking column names... OK
#> 	Checking all required columns are present... OK
#> 	Checking for non-numeric values... OK
#> 	Checking for values outside of 0 and 100... OK
#> 	Checking Parameter formats... OK
#> 
#> All checks passed!

inp <- utilMWRinput(res = resdat, acc = accdat, frecom = frecomdat)
inp$resdat
#> # A tibble: 2,594 × 14
#>    `Monitoring Location ID` `Activity Type` `Activity Start D…` `Activity Star…`
#>    <chr>                    <chr>           <date>              <chr>           
#>  1 HBS-016                  Field Msr/Obs   2021-01-14          09:22           
#>  2 LND-007                  Field Msr/Obs   2021-01-14          09:50           
#>  3 HBS-031                  Field Msr/Obs   2021-01-14          10:05           
#>  4 HBS-057                  Field Msr/Obs   2021-01-14          10:30           
#>  5 HBS-065                  Field Msr/Obs   2021-01-14          10:40           
#>  6 CRN-002                  Field Msr/Obs   2021-01-14          11:30           
#>  7 HBS-076                  Field Msr/Obs   2021-01-14          11:58           
#>  8 HBS-085                  Field Msr/Obs   2021-01-14          12:10           
#>  9 HBS-095                  Field Msr/Obs   2021-01-14          12:20           
#> 10 HBS-016                  Field Msr/Obs   2021-02-15          08:50           
#> # … with 2,584 more rows, and 10 more variables:
#> #   `Activity Depth/Height Measure` <chr>, `Activity Depth/Height Unit` <chr>,
#> #   `Activity Relative Depth Name` <chr>, `Characteristic Name` <chr>,
#> #   `Result Value` <chr>, `Result Unit` <chr>, `Quantitation Limit` <chr>,
#> #   `QC Reference Value` <chr>, `Result Measure Qualifier` <chr>,
#> #   `Result Attribute` <chr>
inp$accdat
#> # A tibble: 21 × 10
#>    Parameter    uom     MDL   UQL `Value Range` `Field Duplica…` `Lab Duplicate`
#>    <chr>        <chr> <dbl> <dbl> <chr>         <chr>            <chr>          
#>  1 Water Temp   deg C NA       NA all           <= 10%           <= 10%         
#>  2 pH           NA    NA       NA all           <= 0.5           <= 0.5         
#>  3 DO           mg/l   0.1     NA < 4           <= 20%           <= 20%         
#>  4 DO           mg/l   0.1     NA >= 4          <= 10%           <= 10%         
#>  5 Sp Conducta… uS/cm  1       NA < 250         <= 30%           <= 20%         
#>  6 Sp Conducta… uS/cm  1       NA >= 250        <= 20%           <= 10%         
#>  7 TSS          mg/l   1       NA < 3           <= 1             <= 20%         
#>  8 TSS          mg/l   1       NA >= 3          <= 30%           <= 20%         
#>  9 TP           mg/l   0.01    NA < 0.05        <= 0.02          <= 0.01        
#> 10 TP           mg/l   0.01    NA >= 0.05       <= 30%           <= 20%         
#> # … with 11 more rows, and 3 more variables: `Field Blank` <chr>,
#> #   `Lab Blank` <chr>, `Spike/Check Accuracy` <chr>
…
