…
Below, the
[`qcMWRacc()`](https://massbays-tech.github.io/MassWateR/reference/qcMWRacc.md)
function is executed with the data frames for the results and quality
objectives file for accuracy. As with `tabMWRacc`, the `accchk` argument
can be used to return one to all of the checks. The results are returned
as a list, with each element of the list corresponding to a specific
accuracy check. Here, the lab duplicate checks are returned. The
warnings are also suppressed.

``` r
qcMWRacc(res = resdat, acc = accdat, frecom = frecomdat, accchk = "Lab Duplicates", warn = FALSE)
#> $`Lab Duplicates`
#> # A tibble: 91 × 7
#>    Parameter Date                `Sample ID` `Initial Result` `Dup. Result`
#>    <chr>     <dttm>              <chr>       <chr>            <chr>        
#>  1 Ammonia   2022-05-15 00:00:00 NA          0.21 mg/l        0.21 mg/l    
#>  2 Ammonia   2022-05-15 00:00:00 NA          BDL              BDL          
#>  3 Ammonia   2022-06-12 00:00:00 NA          0.1 mg/l         0.1 mg/l     
#>  4 Ammonia   2022-06-12 00:00:00 NA          0.19 mg/l        0.19 mg/l    
#>  5 Ammonia   2022-07-17 00:00:00 NA          BDL              BDL          
#>  6 Ammonia   2022-07-17 00:00:00 NA          BDL              BDL          
#>  7 Ammonia   2022-08-14 00:00:00 NA          BDL              BDL          
#>  8 Ammonia   2022-08-14 00:00:00 NA          BDL              BDL          
#>  9 Ammonia   2022-09-11 00:00:00 NA          BDL              BDL          
#> 10 Ammonia   2022-09-11 00:00:00 NA          BDL              BDL          
#> # ℹ 81 more rows
#> # ℹ 2 more variables: `Diff./RPD` <chr>, `Hit/Miss` <chr>
```
…
Below, the
[`qcMWRfre()`](https://massbays-tech.github.io/MassWateR/reference/qcMWRfre.md)
function is executed with the data frames for the results and quality
objectives file for frequency and completeness. The warnings are
suppressed.

``` r
qcMWRfre(res = resdat, acc = accdat, frecom = frecomdat, warn = FALSE)
#> # A tibble: 40 × 7
#>    Parameter   obs check                count standard percent met  
#>    <chr>     <int> <chr>                <int>    <dbl>   <dbl> <lgl>
#>  1 Ammonia      43 Field Duplicate          4       10    9.30 FALSE
#>  2 Ammonia      43 Lab Duplicate           10        5   23.3  TRUE 
#>  3 Ammonia      43 Field Blank              7       10   16.3  TRUE 
#>  4 Ammonia      43 Lab Blank                7        5   16.3  TRUE 
#>  5 Ammonia      43 Spike/Check Accuracy     9        5   20.9  TRUE 
#>  6 DO           49 Field Duplicate         11       10   22.4  TRUE 
#>  7 DO           49 Lab Duplicate            0       NA   NA    NA   
#>  8 DO           49 Field Blank              0       NA   NA    NA   
#>  9 DO           49 Lab Blank                0       NA   NA    NA   
#> 10 DO           49 Spike/Check Accuracy     0       NA   NA    NA   
#> # ℹ 30 more rows
```
…
