MassWateR quality control functions • MassWateR
…
Below, the qcMWRacc() function is executed with the data
frames for the results and quality objectives file for accuracy. As with
tabMWRacc, the accchk argument can be used to
return one to all of the checks. The results are returned as a list,
with each element of the list corresponding to a specific accuracy
check. Here, the lab duplicate checks are returned. The warnings are
also suppressed.

qcMWRacc(res = resdat, acc = accdat, frecom = frecomdat, accchk = "Lab Duplicates", warn = FALSE)
#> $`Lab Duplicates`
#> # A tibble: 91 × 7
#>    Parameter Date       `Sample ID` `Initial Result` `Dup. Result` `Diff./RPD`
#>    <chr>     <date>     <chr>       <chr>            <chr>         <chr>      
#>  1 Ammonia   2022-05-15 NA          0.21 mg/l        0.21 mg/l     0% RPD     
#>  2 Ammonia   2022-05-15 NA          BDL              BDL           0% RPD     
#>  3 Ammonia   2022-06-12 NA          0.1 mg/l         0.1 mg/l      0% RPD     
#>  4 Ammonia   2022-06-12 NA          0.19 mg/l        0.19 mg/l     0% RPD     
#>  5 Ammonia   2022-07-17 NA          BDL              BDL           0% RPD     
#>  6 Ammonia   2022-07-17 NA          BDL              BDL           0% RPD     
#>  7 Ammonia   2022-08-14 NA          BDL              BDL           0% RPD     
#>  8 Ammonia   2022-08-14 NA          BDL              BDL           0% RPD     
#>  9 Ammonia   2022-09-11 NA          BDL              BDL           0% RPD     
#> 10 Ammonia   2022-09-11 NA          BDL              BDL           0% RPD     
#> # ℹ 81 more rows
#> # ℹ 1 more variable: `Hit/Miss` <chr>
…
39%

The tabMWRfre() function uses the
qcMWRfre() function internally to create the table. This
function creates the raw summaries of frequency from the input data.
Typically, qcMWRfre() is not used by itself, but it is
explained here to demonstrate how the raw summaries can be obtained.

Below, the qcMWRfre() function is executed with the data
frames for the results and quality objectives file for frequency and
completeness. The warnings are suppressed.

qcMWRfre(res = resdat, frecom = frecomdat, warn = FALSE)
#> # A tibble: 40 × 7
#>    Parameter   obs check                count standard percent met  
#>    <chr>     <int> <chr>                <int>    <dbl>   <dbl> <lgl>
#>  1 Ammonia      43 Field Duplicate          4       10    9.30 FALSE
#>  2 Ammonia      43 Lab Duplicate           10        5   23.3  TRUE 
#>  3 Ammonia      43 Field Blank              7       10   16.3  TRUE 
#>  4 Ammonia      43 Lab Blank                7        5   16.3  TRUE 
#>  5 Ammonia      43 Spike/Check Accuracy     9        5   20.9  TRUE 
#>  6 DO           49 Field Duplicate         11       10   22.4  TRUE 
#>  7 DO           49 Lab Duplicate            0       NA   NA    NA   
#>  8 DO           49 Field Blank              0       NA   NA    NA   
#>  9 DO           49 Lab Blank                0       NA   NA    NA   
#> 10 DO           49 Spike/Check Accuracy     0       NA   NA    NA   
#> # ℹ 30 more rows
…
