Water Quality Exchange output • MassWateR
…
#>  8 ABT-312                  Mill Road, Westboro           NA                    
#>  9 DAN-013                  Danforth Br, Hudson           NA                    
#> 10 ELZ-004                  Elizabeth Br, Stow            NA                    
#> 11 HOP-011                  Hop Br, Northboro             NA                    
#> 12 NSH-002                  Nashoba, Commonwealth, W. Co… NA                    
#> # ℹ abbreviated name: ¹​`Monitoring Location Type`
#> # ℹ 7 more variables: `Tribal Land Indicator (Yes/No) (optional)` <chr>,
#> #   `Tribal Land Name (optional)` <chr>,
#> #   `Monitoring Location Latitude (DD.DDDD)` <dbl>,
#> #   `Monitoring Location Longitude (-DDD.DDDD)` <dbl>,
#> #   `Monitoring Location Source Map Scale (conditional)` <chr>,
#> #   `Monitoring Location Horizontal Collection Method` <chr>, …
#> 
#> $Results
#> # A tibble: 813 × 31
#>    `Project ID` `Monitoring Location ID` `Activity ID`    Record ID User Suppl…¹
#>    <chr>        <chr>                    <chr>            <chr>                 
#>  1 My_WQ        ABT-026                  ABT-026:2022051… A1234-67              
#>  2 My_WQ        ABT-077                  ABT-077:2022051… A1234-68              
#>  3 My_WQ        ABT-301                  ABT-301:2022051… A1234-69              
#>  4 My_WQ        ABT-312                  ABT-312:2022051… A1234-70              
#>  5 My_WQ        DAN-013                  DAN-013:2022051… A1234-71              
#>  6 My_WQ        ELZ-004                  ELZ-004:2022051… A1234-72              
#>  7 My_WQ        HOP-011                  HOP-011:2022051… A1234-73              
#>  8 My_WQ        NSH-002                  NSH-002:2022051… A1234-74              
#>  9 My_WQ        ABT-026                  ABT-026:2022061… A1234-75              
#> 10 My_WQ        ABT-062                  ABT-062:2022061… A1234-76              
#> # ℹ 803 more rows
#> # ℹ abbreviated name: ¹​`Record ID User Supplied`
#> # ℹ 27 more variables: `Activity Type` <chr>, `Activity Media Name` <chr>,
#> #   `Activity Start Date` <chr>, `Activity Start Time` <chr>,
#> #   `Activity Start Time Zone` <chr>, `Activity Depth/Height Measure` <chr>,
#> #   `Activity Depth/Height Unit` <chr>, `Activity Relative Depth Name` <chr>,
#> #   `Sample Collection Method ID` <chr>, …
…
